%YAML 1.1
%TAG !u! tag:unity3d.com,2011:
--- !u!1045 &1
EditorBuildSettings:
  m_ObjectHideFlags: 0
  serializedVersion: 2
  m_Scenes:
  - enabled: 0
    path: 
    guid: 00000000000000000000000000000000
  - enabled: 1
    path: Assets/Creator Kit - RPG/Scenes/MyScene.unity
    guid: f3069ebd3a1b9d349978a7d1ecb32e5d
  m_configObjects: {}
